{
  "update_id": 496375978,
  "message": {
    "message_id": 269,
    "from": {
      "id": 476968779,
      "is_bot": false,
      "first_name": "Smolensky",
      "username": "Smo1ensky",
      "language_code": "en"
    },
    "chat": {
      "id": 476968779,
      "first_name": "Smolensky",
      "username": "Smo1ensky",
      "type": "private"
    },
    "date": 1569507634,
    "text": "flytomoon"
  }
}